Whole Game
…
# save tweets
save(tweets, file = "tweets")

# tweets are loaded with this chunk from saved data
load("tweets")

tweets

# A tibble: 485 × 43
   created_at               id id_str       full_…¹ trunc…² displ…³ entities    
   <dttm>                <dbl> <chr>        <chr>   <lgl>     <dbl> <list>      
 1 2022-12-05 12:42:27 1.60e18 15997460183… "This … FALSE       266 <named list>
 2 2022-12-05 12:19:01 1.60e18 15997401201… "The …  FALSE       281 <named list>
 3 2022-12-05 11:54:12 1.60e18 15997338773… "🤔 So… FALSE       277 <named list>
 4 2022-12-06 18:26:50 1.60e18 16001950750… "Been … FALSE       273 <named list>
 5 2022-12-06 18:25:00 1.60e18 16001946117… "On #c… FALSE       291 <named list>
 6 2022-12-06 18:23:50 1.60e18 16001943195… "@Nick… FALSE       289 <named list>
 7 2022-12-06 18:23:49 1.60e18 16001943137… "Amazi… FALSE       159 <named list>
 8 2022-12-06 18:21:04 1.60e18 16001936244… "COP27… FALSE       171 <named list>
 9 2022-12-06 18:20:05 1.60e18 16001933760… "AMERI… FALSE       280 <named list>
10 2022-12-06 18:20:00 1.60e18 16001933531… "Globa… FALSE       173 <named list>
# … with 475 more rows, 36 more variables: metadata <list>, source <chr>,
#   in_reply_to_status_id <dbl>, in_reply_to_status_id_str <chr>,
#   in_reply_to_user_id <dbl>, in_reply_to_user_id_str <chr>,
#   in_reply_to_screen_name <chr>, geo <list>, coordinates <list>,
#   place <list>, contributors <lgl>, is_quote_status <lgl>,
#   retweet_count <int>, favorite_count <int>, favorited <lgl>,
#   retweeted <lgl>, possibly_sensitive <lgl>, lang <chr>, …
…
# save
save(tagesschau_links, file = "tagesschau_links")

# load saved links
load("tagesschau_links")

tagesschau_links %>% as_tibble()

# A tibble: 680 × 5
   pub        link                                      pubdate    title descr…¹
   <chr>      <chr>                                     <date>     <chr> <lgl>  
 1 Tagesschau https://www.tagesschau.de/inland/frankfu… 2022-11-06 Ober… NA     
 2 Tagesschau https://www.tagesschau.de/inland/innenpo… 2022-11-06 83 M… NA     
 3 Tagesschau https://www.tagesschau.de/newsticker/liv… 2022-11-06 ++ E… NA     
 4 Tagesschau https://www.tagesschau.de/ausland/afrika… 2022-11-06 Flug… NA     
 5 Tagesschau https://www.tagesschau.de/inland/merz-bu… 2022-11-06 Merz… NA     
 6 Tagesschau https://www.tagesschau.de/ausland/iran-d… 2022-11-06 Erne… NA     
 7 Tagesschau https://www.tagesschau.de/ausland/ukrain… 2022-11-06 Was … NA     
 8 Tagesschau https://www.tagesschau.de/inland/ekd-syn… 2022-11-06 Unei… NA     
 9 Tagesschau https://www.tagesschau.de/wirtschaft/unt… 2022-11-06 Ande… NA     
10 Tagesschau https://www.tagesschau.de/inland/exil-ru… 2022-11-06 Gefl… NA     
# … with 670 more rows, and abbreviated variable name ¹​description
…
# combine with links
tagesschau_data <- left_join(tagesschau_data, tagesschau_links, by = c("url" = "link"))

# save
save(tagesschau_data, file = "tagesschau_data")

load("tagesschau_data")

tagesschau_data

# A tibble: 680 × 6
   url                                      text  pub   pubdate    title descr…¹
   <chr>                                    <chr> <chr> <date>     <chr> <lgl>  
 1 https://www.tagesschau.de/inland/frankf… "Der… Tage… 2022-11-06 Ober… NA     
 2 https://www.tagesschau.de/inland/innenp… "Für… Tage… 2022-11-06 83 M… NA     
 3 https://www.tagesschau.de/newsticker/li… "EU-… Tage… 2022-11-06 ++ E… NA     
 4 https://www.tagesschau.de/ausland/afrik… "In … Tage… 2022-11-06 Flug… NA     
 5 https://www.tagesschau.de/inland/merz-b… "Die… Tage… 2022-11-06 Merz… NA     
 6 https://www.tagesschau.de/ausland/iran-… "Im … Tage… 2022-11-06 Erne… NA     
 7 https://www.tagesschau.de/ausland/ukrai… "Die… Tage… 2022-11-06 Was … NA     
 8 https://www.tagesschau.de/inland/ekd-sy… "Die… Tage… 2022-11-06 Unei… NA     
 9 https://www.tagesschau.de/wirtschaft/un… "Übe… Tage… 2022-11-06 Ande… NA     
10 https://www.tagesschau.de/inland/exil-r… "Aus… Tage… 2022-11-06 Gefl… NA     
# … with 670 more rows, and abbreviated variable name ¹​description
…
# save
save(faz_links, file = "faz_links")

# load saved links
load("faz_links")

faz_links %>% as_tibble()

# A tibble: 2,696 × 5
   pub   link                                           pubdate    title descr…¹
   <chr> <chr>                                          <date>     <chr> <lgl>  
 1 FAZ   https://www.faz.net/aktuell/politik/inland/me… 2022-11-06 Merz… NA     
 2 FAZ   https://www.faz.net/aktuell/sport-15175124.ht… 2022-11-06 Gute… NA     
 3 FAZ   https://www.faz.net/aktuell/sport-15175124.ht… 2022-11-06 Darm… NA     
 4 FAZ   https://www.faz.net/aktuell/sport-15175124.ht… 2022-11-06 Fran… NA     
 5 FAZ   https://www.faz.net/aktuell/rhein-main/frankf… 2022-11-06 Der … NA     
 6 FAZ   https://www.faz.net/aktuell/sport/freiburg-be… 2022-11-06 Ein … NA     
 7 FAZ   https://www.faz.net/aktuell/politik/buergeren… 2022-11-06 Fran… NA     
 8 FAZ   https://www.faz.net/aktuell/politik/peter-fel… 2022-11-06 Waru… NA     
 9 FAZ   https://www.faz.net/aktuell/politik/inland/so… 2022-11-06 Baye… NA     
10 FAZ   https://www.faz.net/aktuell/wirtschaft/lindne… 2022-11-06 Lind… NA     
# … with 2,686 more rows, and abbreviated variable name ¹​description
…
# combine with links
faz_data <- left_join(faz_data, faz_links, by = c("url" = "link"))

# save
save(faz_data, file = "faz_data")

load("faz_data")

faz_data

# A tibble: 2,694 × 6
   url                                      text  pub   pubdate    title descr…¹
   <chr>                                    <chr> <chr> <date>     <chr> <lgl>  
 1 https://www.faz.net/aktuell/politik/inl… "CDU… FAZ   2022-11-06 Merz… NA     
 2 https://www.faz.net/aktuell/sport-15175… ""    FAZ   2022-11-06 Gute… NA     
 3 https://www.faz.net/aktuell/sport-15175… ""    FAZ   2022-11-06 Darm… NA     
 4 https://www.faz.net/aktuell/sport-15175… ""    FAZ   2022-11-06 Fran… NA     
 5 https://www.faz.net/aktuell/rhein-main/… "11.… FAZ   2022-11-06 Der … NA     
 6 https://www.faz.net/aktuell/sport/freib… "Der… FAZ   2022-11-06 Ein … NA     
 7 https://www.faz.net/aktuell/politik/bue… "Der… FAZ   2022-11-06 Fran… NA     
 8 https://www.faz.net/aktuell/politik/pet… "Das… FAZ   2022-11-06 Waru… NA     
 9 https://www.faz.net/aktuell/politik/inl… "Die… FAZ   2022-11-06 Baye… NA     
10 https://www.faz.net/aktuell/wirtschaft/… "Fin… FAZ   2022-11-06 Lind… NA     
# … with 2,684 more rows, and abbreviated variable name ¹​description
…
# unnest tokens and remove stopwords
tokens <- d %>%
  unnest_tokens(word, lemmatized_text, token = "words", to_lower = TRUE) %>%
  anti_join(get_stopwords(language = "de", source="stopwords-iso")) %>%
  filter(!str_detect(word, "NA")) %>% # remove "NA" resulting from lemmatization
  add_count(word) %>%
  filter(n > 20) # remove very infrequent terms

tokens

# A tibble: 10,249 × 11
   doc_id url   text  clean…¹ pub   pubdate    title descr…² cld2_…³ word      n
    <dbl> <chr> <chr> <chr>   <chr> <date>     <chr> <lgl>   <chr>   <chr> <int>
 1      1 http… "Die… Die We… Tage… 2022-11-06 Schm… NA      de      entw…    42
 2      1 http… "Die… Die We… Tage… 2022-11-06 Schm… NA      de      geben   157
 3      1 http… "Die… Die We… Tage… 2022-11-06 Schm… NA      de      erwä…    23
 4      1 http… "Die… Die We… Tage… 2022-11-06 Schm… NA      de      erde…    42
 5      1 http… "Die… Die We… Tage… 2022-11-06 Schm… NA      de      neu     106
 6      1 http… "Die… Die We… Tage… 2022-11-06 Schm… NA      de      zufo…    48
 7      1 http… "Die… Die We… Tage… 2022-11-06 Schm… NA      de      jed      37
 8      1 http… "Die… Die We… Tage… 2022-11-06 Schm… NA      de      verg…    53
 9      1 http… "Die… Die We… Tage… 2022-11-06 Schm… NA      de      begi…    29
10      1 http… "Die… Die We… Tage… 2022-11-06 Schm… NA      de      heiß…    47
# … with 10,239 more rows, and abbreviated variable names ¹​clean_text,
#   ²​description, ³​cld2_lang
…
# add scores
scored <-
  left_join(tokens, sent_dictionary, by = c("word" = "feature")) %>% # join with scores
  mutate(value = if_else(is.na(sentiment), 0, sentiment)) %>% # missing words to 0
  group_by(doc_id) %>%
  summarise(sentiment = mean(value), .groups = "drop") %>%  # average score per text
  left_join(d) # join data back in

scored

# A tibble: 84 × 11
   doc_id sentiment url     text  clean…¹ lemma…² pub   pubdate    title descr…³
    <dbl>     <dbl> <chr>   <chr> <chr>   <chr>   <chr> <date>     <chr> <lgl>  
 1      1   0.192   https:… "Die… Die We… "der W… Tage… 2022-11-06 "Sch… NA     
 2      2   0.0965  https:… "In … In Ägy… "in Äg… Tage… 2022-11-06 "\"E… NA     
 3      3   0.138   https:… "Dür… Dürre … "Dürr … Tage… 2022-11-06 "Kön… NA     
 4      4   0.0537  https:… "Mit… Mit Bl… "mit B… Tage… 2022-11-06 "\"M… NA     
 5      5   0.0847  https:… "Wie… Wie ge… "wie g… Tage… 2022-11-06 "Gro… NA     
 6      6   0.0667  https:… "13 … Tage g… "13 Ta… Tage… 2022-11-06 "Wie… NA     
 7      7  -0.00196 https:… "Der… Der uk… "der u… Tage… 2022-11-07 "++ … NA     
 8      8   0.0769  https:… "Die… Die CO… "der C… Tage… 2022-11-07 "Die… NA     
 9      9   0.0656  https:… "Bun… Bundes… "Bunde… Tage… 2022-11-07 "Aus… NA     
10     10   0.0709  https:… "UN-… UNGene… "UN - … Tage… 2022-11-07 "\"W… NA     
# … with 74 more rows, 1 more variable: cld2_lang <chr>, and abbreviated
#   variable names ¹​clean_text, ²​lemmatized_text, ³​description
…
